{
  "id": "1797585",
  "name": "vue-admin",
  "font_family": "iconfont",
  "css_prefix_text": "icon-",
  "description": "",
  "glyphs": [
    {
      "icon_id": "212782",
      "name": "show-password ",
      "font_class": "showpassword",
      "unicode": "ea3f",
      "unicode_decimal": 59967
    },
    {
      "icon_id": "401189",
      "name": "user",
      "font_class": "user",
      "unicode": "e89a",
      "unicode_decimal": 59546
    },
    {
      "icon_id": "401225",
      "name": "users",
      "font_class": "users",
      "unicode": "e8b5",
      "unicode_decimal": 59573
    },
    {
      "icon_id": "688096",
      "name": "商品 购物袋2",
      "font_class": "shangpingouwudai2",
      "unicode": "e789",
      "unicode_decimal": 59273
    },
    {
      "icon_id": "1727362",
      "name": "25单据",
      "font_class": "danju",
      "unicode": "e89b",
      "unicode_decimal": 59547
    },
    {
      "icon_id": "1727367",
      "name": "28体积、空间",
      "font_class": "tijikongjian",
      "unicode": "e89f",
      "unicode_decimal": 59551
    },
    {
      "icon_id": "1727461",
      "name": "225默认头像",
      "font_class": "morentouxiang",
      "unicode": "e8c9",
      "unicode_decimal": 59593
    },
    {
      "icon_id": "1727589",
      "name": "406报表",
      "font_class": "baobiao",
      "unicode": "e902",
      "unicode_decimal": 59650
    },
    {
      "icon_id": "7008959",
      "name": "lock_fill",
      "font_class": "lock_fill",
      "unicode": "e709",
      "unicode_decimal": 59145
    },
    {
      "icon_id": "7712708",
      "name": "password",
      "font_class": "password",
      "unicode": "e734",
      "unicode_decimal": 59188
    }
  ]
}
